<svg width="18" height="19" viewBox="0 0 18 19" fill="none" xmlns="http://www.w3.org/2000/svg">
<rect y="0.5" width="18" height="18" rx="4" fill="#0066FF"/>
<path fill-rule="evenodd" clip-rule="evenodd" d="M13.0765 6.53735C13.4701 6.92479 13.4751 7.55793 13.0877 7.95152L8.65798 12.4515C8.28552 12.8299 7.68231 12.8512 7.28404 12.5001L4.96373 10.4547C4.54944 10.0895 4.50966 9.45756 4.87487 9.04327C5.24009 8.62898 5.872 8.58919 6.28629 8.95441L7.89663 10.374L11.6624 6.54848C12.0498 6.1549 12.6829 6.14991 13.0765 6.53735Z" fill="white"/>
<path d="M4 1.5H14V-0.5H4V1.5ZM17 4.5V14.5H19V4.5H17ZM14 17.5H4V19.5H14V17.5ZM1 14.5V4.5H-1V14.5H1ZM4 17.5C2.34315 17.5 1 16.1569 1 14.5H-1C-1 17.2614 1.23858 19.5 4 19.5V17.5ZM17 14.5C17 16.1569 15.6569 17.5 14 17.5V19.5C16.7614 19.5 19 17.2614 19 14.5H17ZM14 1.5C15.6569 1.5 17 2.84315 17 4.5H19C19 1.73858 16.7614 -0.5 14 -0.5V1.5ZM4 -0.5C1.23858 -0.5 -1 1.73858 -1 4.5H1C1 2.84315 2.34315 1.5 4 1.5V-0.5Z" fill="#EAEEF1"/>
</svg>
